…
## Warning in mask$eval_all_mutate(dots[[i]]): NAs introduced by coercion

## Warning: Problem with `mutate()` input `end_year`.
## i NAs introduced by coercion
## i Input `end_year` is `as.numeric(end_year)`.

## Warning in mask$eval_all_mutate(dots[[i]]): NAs introduced by coercion

Now we should handle NAs.

transit_cost_2

## # A tibble: 537 x 14
##        e country city  line  start_year end_year    rr length tunnel stations
##    <dbl> <chr>   <chr> <chr>      <dbl>    <dbl> <dbl>  <dbl>  <dbl>    <dbl>
##  1  7136 CA      Vanc~ Broa~       2020     2025     0    5.7    5          6
##  2  7137 CA      Toro~ Vaug~       2009     2017     0    8.6    8.6        6
##  3  7138 CA      Toro~ Scar~       2020     2030     0    7.8    7.8        3
##  4  7139 CA      Toro~ Onta~       2020     2030     0   15.5    8.8       15
##  5  7144 CA      Toro~ Yong~       2020     2030     0    7.4    7.4        6
##  6  7145 NL      Amst~ Nort~       2003     2018     0    9.7    7.1        8
##  7  7146 CA      Mont~ Blue~       2020     2026     0    5.8    5.8        5
##  8  7147 US      Seat~ U-Li~       2009     2016     0    5.1    5.1        2
##  9  7152 US      Los ~ Purp~       2020     2027     0    4.2    4.2        2
## 10  7153 US      Los ~ Purp~       2018     2026     0    4.2    4.2        2
## # ... with 527 more rows, and 4 more variables: year <dbl>, ppp_rate <dbl>,
## #   real_cost <chr>, cost_km_millions <dbl>
…
transit_cost_2

## # A tibble: 537 x 14
##        e country city  line  start_year end_year    rr length tunnel stations
##    <dbl> <chr>   <chr> <chr>      <dbl>    <dbl> <dbl>  <dbl>  <dbl>    <dbl>
##  1  7136 CA      Vanc~ Broa~       2020     2025     0    5.7    5          6
##  2  7137 CA      Toro~ Vaug~       2009     2017     0    8.6    8.6        6
##  3  7138 CA      Toro~ Scar~       2020     2030     0    7.8    7.8        3
##  4  7139 CA      Toro~ Onta~       2020     2030     0   15.5    8.8       15
##  5  7144 CA      Toro~ Yong~       2020     2030     0    7.4    7.4        6
##  6  7145 NL      Amst~ Nort~       2003     2018     0    9.7    7.1        8
##  7  7146 CA      Mont~ Blue~       2020     2026     0    5.8    5.8        5
##  8  7147 US      Seat~ U-Li~       2009     2016     0    5.1    5.1        2
##  9  7152 US      Los ~ Purp~       2020     2027     0    4.2    4.2        2
## 10  7153 US      Los ~ Purp~       2018     2026     0    4.2    4.2        2
## # ... with 527 more rows, and 4 more variables: year <dbl>, ppp_rate <dbl>,
## #   real_cost <chr>, cost_km_millions <dbl>
